{
  "Monsters": [
    {
      "Name": "Rambow",
      "Attack": 13,
      "Defense": 42,
      "Health": 25,
      "Speed": 16,
      "Id": 0,
      "FrontImage": "marioSmall.png",
      "BackImage": "marioSmall.png",
      "Moves": {
        "Shoot": 1,
        "Paralyze": 4,
        "Guts": 6,
        "Boost": 8
      }
    },
    {
      "Name": "Weeblethump",
      "Attack": 12,
      "Defense": 45140,
      "Health": 9238135,
      "Speed": 92105,
      "Id": 0,
      "FrontImage": "Pixel-Twitter-Bird.PNG",
      "BackImage": "marioSmall.png",
      "Moves": {
        "Thump": 1,
        "Exo": 3,
        "Protect": 7,
        "Uturn": 9
      }
    },
    {
      "Name": "Boogerman",
      "Attack": 1123,
      "Defense": 2,
      "Health": 4,
      "Speed": 3,
      "Id": 0,
      "FrontImage": "sonaSprite.png",
      "BackImage": "sonaSprite.png",
      "Moves": {
        "Tackle": 0,
        "Guts": 11,
        "Earthquake": 21,
        "Exo": 33
      }
    }
  ]
}